<?xml version="1.0" encoding="utf-8"?>
<!-- Generator: Adobe Illustrator 24.0.2, SVG Export Plug-In . SVG Version: 6.00 Build 0)  -->
<svg version="1.1" id="Capa_1" xmlns="http://www.w3.org/2000/svg" xmlns:xlink="http://www.w3.org/1999/xlink" x="0px" y="0px"
	 viewBox="0 0 315 126.3" style="enable-background:new 0 0 315 126.3;" xml:space="preserve">
<style type="text/css">
	.st0{fill:#D1E3FA;}
</style>
<title>Recurso 1</title>
<g id="Capa_2_1_">
	<g id="OBJECTS">
		<path class="st0" d="M133.3,125.2c-5.8-6.9-15.7-8.4-24.7-8s-18.1,2-26.8-0.4c-12.7-3.6-21.6-15.6-25.2-28.3
			c-3.5-12.2-3-25.4-7.8-37.1c-1.6-3.9-3.9-7.7-7.2-10.2c-4.7-3.5-10.9-4.4-16.7-4.1C16,37.3,7.5,39.9,0,44.6v59.7
			c0,12.2,9.8,22,22,22h112.2C133.9,125.9,133.6,125.5,133.3,125.2z"/>
		<path class="st0" d="M293,126.3c12.2,0,22-9.8,22-22V1.3c-5.1,1.8-10,4.2-14.5,7.1c-11.6,7.2-23.7,15.7-32.6,26.8
			c-11.1,13.8-12.3,27.3-14.7,44.2c-1.6,11.6-5.9,24.1-16.2,29.8c-4.8,2.7-10.4,3.5-15.8,4.6s-10.9,2.7-14.9,6.5
			c-1.8,1.7-3.1,3.8-3.8,6.2H293z"/>
		<path class="st0" d="M237.7,7.7c-7.2,6.5-9.8,16.7-11.3,26.3c-0.9,5.9-1.6,12-0.4,17.8s4.2,11.6,9.3,14.7c2.6,1.6,5.9,2.3,8.6,0.8
			c4-2.3,3.7-8.1,4.3-12.7c1.6-13.9,14.8-23.6,19.2-36.8c1.5-4.5,1.9-9.8-1-13.6c-4.2-5.6-12.8-4.9-19.3-2.2
			C243.7,3.3,240.5,5.2,237.7,7.7z"/>
		<path class="st0" d="M77.9,76.9c1.1-3.8,1.8-7.7,1.9-11.7c0.1-5.5-1.1-11-3.4-16c-0.9-2-2.2-4-4.3-4.6c-2.3-0.6-4.6,0.9-6.2,2.7
			c-3.1,3.7-4.1,8.8-4.7,13.6c-0.4,3.7-0.7,7.4-0.9,11.2c-0.1,3.2-0.1,6.4,1.1,9.3s3.9,5.4,7.1,5.4C73.6,87,76.6,81.7,77.9,76.9z"/>
	</g>
</g>
</svg>
